{
    "diffEditor.ignoreTrimWhitespace": true,
    "editor.smoothScrolling": true,
    "editor.insertSpaces": true,
    "editor.cursorBlinking": "smooth",
    "editor.detectIndentation": true,
    "editor.fontWeight": "400",
    "editor.formatOnPaste": true,
    "editor.lineHeight": 20,
    "editor.fontSize": 13,
    "editor.scrollBeyondLastLine": true,
    "editor.accessibilitySupport": "off",
    "editor.fontFamily": "Fira Code",
    "editor.fontLigatures": true,
    "explorer.confirmDragAndDrop": false,
    "files.autoSave": "afterDelay",
    "files.trimTrailingWhitespace": true,
    "git.confirmSync": false,
    "git.autofetch": true,
    "gitlens.keymap": "alternate",
    "gitlens.advanced.messages": {
        "suppressShowKeyBindingsNotice": true
    },
    "gitlens.historyExplorer.enabled": true,
    "npm.enableScriptExplorer": true,
    "sync.gist": "8712bdb3c40e2a6f854727344fdd02a4",
    "sync.autoDownload": true,
    "sync.autoUpload": true,
    "sync.forceDownload": false,
    "sync.quietSync": true,
    "sync.askGistName": false,
    "sync.removeExtensions": true,
    "sync.syncExtensions": true,
    "window.openFoldersInNewWindow": "on",
    "window.menuBarVisibility": "toggle",
    "window.restoreWindows": "all",
    "window.openFilesInNewWindow": "on",
    "window.zoomLevel": 0,
    "workbench.sideBar.location": "left",
    "workbench.colorTheme": "Cobalt2",
    "workbench.activityBar.visible": false,
}